{
  "alphabet": ["0", "1", "2", "3", "4", "5", "6", "7", "8", "9"],
  "states": ["start", "digit"],
  "startState": "start",
  "acceptStates": ["digit"],
  "transitions": [
    {
      "state": "start",
      "input": ["0", "1", "2", "3", "4", "5", "6", "7", "8", "9"],
      "transition": "digit"
    },
    {
      "state": "digit",
      "input": ["0", "1", "2", "3", "4", "5", "6", "7", "8", "9"],
      "transition": "digit"
    }
  ]
}